%YAML 1.1
%TAG !u! tag:unity3d.com,2011:
--- !u!78 &1
TagManager:
  serializedVersion: 2
  tags:
  - LocalPlayer
  - NameTagContainer
  layers:
  - Default
  - TransparentFX
  - Ignore Raycast
  - 
  - Water
  - UI
  - 
  - 
  - Enemy
  - Items
  - HazardZone
  - 
  - 
  - 
  - 
  - 
  - 
  - 
  - 
  - 
  - 
  - 
  - 
  - 
  - 
  - 
  - 
  - 
  - 
  - 
  - 
  - 
  m_SortingLayers:
  - name: Default
    uniqueID: 0
    locked: 0
  - name: Ground
    uniqueID: 2953678575
    locked: 0
  - name: Decoration
    uniqueID: 3897109973
    locked: 0
  - name: Player
    uniqueID: 3709431867
    locked: 0
  - name: Decorations above player
    uniqueID: 53063875
    locked: 0
